…
julia> # Define simulation parameters
julia> composition = Silicic()
julia> end_time = 3e9
julia> log_volume_km3 = 0.2
julia> InitialConc_H2O = 0.04
julia> InitialConc_CO2 = 0.001
julia> log_vfr = -3.3
julia> depth = 8e3

julia> # Run simulation
julia> dataframe = chamber(composition, end_time, log_volume_km3, InitialConc_H2O, InitialConc_CO2, log_vfr, depth)
470×12 DataFrame
 Row │ time            P+dP       T        eps_g       V          rho_m    rho_x    X_CO2     total_mass  total_mass_H2O  total_mass_CO2  eps_x    
     │ Float64         Float64    Float64  Float64     Float64    Float64  Float64  Float64   Float64     Float64         Float64         Float64  
─────┼─────────────────────────────────────────────────────────────────────────────────────────────────────────────────────────────────────────────
   1 │      0.0        2.1582e8   1046.71  0.00558159  1.58489e9  2400.0   2600.0   0.346043  3.83394e12      1.54039e11       3.85098e9  0.146696
   2 │ 100000.0        2.15824e8  1046.71  0.00558131  1.58489e9  2400.0   2600.0   0.34605   3.83395e12      1.54039e11       3.85099e9  0.146696
   3 │      7.61993e5  2.15848e8  1046.71  0.0055795   1.5849e9   2400.01  2600.01  0.346101  3.83397e12      1.5404e11        3.85101e9  0.146698
  ⋮  │       ⋮             ⋮         ⋮         ⋮           ⋮         ⋮        ⋮        ⋮          ⋮             ⋮               ⋮            ⋮
 468 │      2.98643e9  2.23399e8  1043.44  0.00559005  1.58782e9  2401.9   2602.06  0.33863   3.85078e12      1.54716e11       3.8679e9   0.167628
 469 │      2.99643e9  2.23759e8  1043.43  0.00556433  1.58788e9  2401.99  2602.15  0.339346  3.85116e12      1.54731e11       3.86828e9  0.16766
 470 │      3.0e9      2.23888e8  1043.43  0.00555519  1.5879e9   2402.02  2602.18  0.339601  3.8513e12       1.54737e11       3.86842e9  0.167671
                                                                                                                                   464 rows omitted
```
…
### Example 2: Basalt composition (rift magma)
Run a simulation with mafic magma chamber, with custom directory name "MyDirname":
```julia
julia> composition = Mafic()
julia> end_time = 3e9
julia> log_volume_km3 = 0.2
julia> InitialConc_H2O = 0.01
julia> InitialConc_CO2 = 0.001
julia> log_vfr = -3.3
julia> depth = 8e3
julia> output_dirname = "MyDirname"

julia> chamber(composition, end_time, log_volume_km3, InitialConc_H2O, InitialConc_CO2, log_vfr, depth, output_dirname)
458×12 DataFrame
 Row │ time            P+dP       T        eps_g       V          rho_m    rho_x    X_CO2     total_mass  total_mass_H2O  total_mass_CO2  eps_x    
     │ Float64         Float64    Float64  Float64     Float64    Float64  Float64  Float64   Float64     Float64         Float64         Float64  
─────┼─────────────────────────────────────────────────────────────────────────────────────────────────────────────────────────────────────────────
   1 │      0.0        2.1582e8   1405.74  0.00139209  1.58489e9  2420.0   2900.0   0.859079  3.94439e12      3.94903e10       3.94903e9  0.149114
   2 │ 100000.0        2.15823e8  1405.74  0.00139197  1.58489e9  2420.0   2900.0   0.859081  3.9444e12       3.94903e10       3.94903e9  0.149115
   3 │      6.31887e5  2.1584e8   1405.74  0.00139134  1.5849e9   2420.0   2900.01  0.859088  3.94442e12      3.94905e10       3.94905e9  0.149122
  ⋮  │       ⋮             ⋮         ⋮         ⋮           ⋮         ⋮        ⋮        ⋮          ⋮             ⋮               ⋮            ⋮
 456 │      2.98793e9  2.21924e8  1401.0   0.00139538  1.58945e9  2421.59  2901.91  0.856613  3.97744e12      3.98211e10       3.98211e9  0.17412
 457 │      2.99793e9  2.22224e8  1401.01  0.00138474  1.58951e9  2421.66  2902.0   0.856745  3.97782e12      3.9825e10        3.9825e9   0.174241
 458 │      3.0e9      2.22286e8  1401.01  0.00138255  1.58952e9  2421.68  2902.01  0.856772  3.9779e12       3.98258e10       3.98258e9  0.174266
                                                                                                                                   452 rows omitted
```
…
